919	Abrasion without infection	50
682.9	Abscess acute NOS	50
706.1	Acne cystic and vulgaris	50
692.3	Acneiform drug eruption	50
701.9/216.9	Achrochordon 	50
702	Actinic keratosis	50
216._*	Adenoma	50
272.8	Adiposis dolorosa 	50
704.01	Alopecia areata	50
757.4	Alopecia congenital	50
704	Alopecia unspecified	50
216._*	Angiokeratoma NOS	50
214	Angiolipoma of face	50
214.1	Angiolipoma skin (not face)	50
228.01	Angioma benign	50
691.8	Atopic dermatitis	50
701.3	Atrophy (skin)	50
607.1	Balanitis	50
607.81	Balanitis xerotica obliterans	50
173._*	Basal cell carcinoma   	50
173.01	 Basal cell carcinoma lip  	50
173.11	Basal cell carcinoma eyelid  	50
173.21	Basal cell carcinoma ear and external auditory canal  	50
173.31	Basal cell carcinoma face cheek  	50
173.41	Basal cell carcinoma scalp/neck 	50
173.51	Basal cell carcinoma trunk  	50
173.61	Basal cell carcinoma arm/shoulder  	50
173.71	Basal cell carcinoma leg/hip  	50
173.81	Basal cell carcinoma skin (specified site)  	50
173.91	Basal cell carcinoma skin (unspecified site)	50
919.4	 Bee sting	50
216._*	Benign neoplasm	50
216	Benign neoplasm lip	50
216.1	Benign neoplasm eyelid  	50
216.2	Benign neoplasm ear  	50
216.3	Benign neoplasm face cheek  	50
216.4	Benign neoplasm scalp/neck 	50
216.5	Benign neoplasm trunk  	50
216.6	Benign neoplasm arm  	50
216.7	Benign neoplasm leg  	50
216.8	Benign neoplasm skin (unspecified site)	50
989.5	Bite arthropod	50
529.3	Black hairy tongue	50
232._*	Bowen's disease skin	50
232	Bowen's disease lip  	50
232.1	Bowen's disease eyelid  	50
232.2	Bowen's disease ear  	50
232.3	Bowen's disease face cheek  	50
232.4	Bowen's disease scalp/neck 	50
232.5	Bowen's disease trunk  	50
232.6	Bowen's disease arm  	50
232.7	Bowen's disease leg  	50
232.8	Bowen's disease skin (unspecified site)	50
949.1	Burn 1st degree (erythema)	50
949	Burn unspecified	50
782	Burning sensation (skin)	50
709.09	Cafe-au-lait macules	50
700	Callus	50
112.3	Candidiasis intertrigo nails skin	50
448.9	Capillary disease	50
78.3	Cat scratch disease	50
681.9	Cellulitis and abscess of unspecified digit	50
682.8	Cellulitis/abscess	50
682.9	Cellulitis NOS	50
91	Chancre syphilitic	50
528.5	Cheilitis	50
228.01	Cherry angioma	50
380	Chondrodermatitis nodularis helicis	50
133.8	Chigger bites	50
709.2	Cicatrix	50
700	Clavus corn	50
702.8	Cutaneous horn	50
126.9	Cutaneous larva migrans (creeping eruption) NOS	50
706.2	Cyst epidermal	50
757.39	Darier disease	50
998.32	Dehiscence of wound	50
692.7	Dermatitis actinic	50
691.8	Dermatitis atopic	50
692.4	Dermatitis chemical	50
692.9	Dermatitis contact allergic eczematous NOS	50
695.89	Dermatitis exfoliative	50
691	Dermatitis diaper	50
373.32	Dermatitis eyelid contact	50
698.4	Dermatitis factitial	50
694	Dermatitis herpetiformis	50
693	Dermatitis internal medicine	50
695.3	Dermatitis perioral	50
692.6	Dermatitis poison ivy or oak	50
690.18	Dematitis seborrheic	50
454.1	Dermatitis stasis	50
110.5	Dermatophytosis corporis	50
110.4	Dermatophytosis pedis	50
110.1	Dermatophytosis unguium	50
708.3	Dermographism	50
695.4	Discoid lupus erythematosus	50
705.81	Dyshidrosis / pompholyx	50
459.89	Ecchymoses	50
692.9	Eczema allergic nummular	50
706.8	Eczema asteatotic xerotic	50
782.3	Edema localized NOS	50
706.2	Epidermal cyst	50
695.1	Erythema multiforme	50
695.2	Erythema nodosum	50
695.9	Erythematous condition (erythema unspecified NOS)	50
726.91	Exostosis of unspecified site	50
528.7	Erythroplakia of mouth / tongue	50
233.5	Erythroplasia of queyrat penis	50
782.1	Exanthem nonspecific	50
57.9	Exanthem viral unspecified	50
681.01	Felon	50
215._*	Fibroma connective tissue	50
704.8	Folliculitis	50
709.4	Foreign body granuloma skin	50
680.9	Furuncle	50
54.1	Genital herpes	50
78.19	Genital warts	50
228.01	Glomus tumor skin	50
695.89	Granuloma annulare	50
99.2	Granuloma inguinale	50
228.01	Hemangioma skin and subcutaneous tissue	50
54.1	Herpes simplex genital	50
54.9	Herpes simplex NOS	50
54.13	Herpes simplex penis	50
53.12	Herpes zoster post-herpetic trigeminal neuralgia	50
54.2	Herpes zoster with ophthalmicus	50
53.9	Herpes zoster without complications	50
705.83	Hidradenitis suppurativa	50
704.1	Hirsutism NOS	50
705.21	Hyperhidrosis	50
709.09	Hyper / hypopigmentation	50
701.4	Hypertrophic scar	50
701.1	Ichthyosis acquired	50
684	Impetigo	50
686.9	Infection of skin/subcutaneous NOS	50
919.4	Insect bite nonvenomous without infectionx	50
919.5	Insect bite nonvenomous with infection	50
695.89	Intertrigo	50
176	Kaposi sarcoma skin	50
701.4	Keloid	50
757.39	Keratoderma	50
757.39	Keratosis pilaris	50
709.09	Lentigo	50
528.6	Leukoplakia of lips / mouth	50
697.8	Lichen planus acute / chronic hypertrophic	50
697	 Lichen planus NOS	50
701	Lichen sclerosus et atrophicus	50
698.3	Lichenification Lichen simplex chronicus	50
214	Lipoma face	50
214.1	Lipoma other skin / subcutaneous	50
V58.69	Long-term medication use	50
695.4	Lupus erythematosus skin	50
710	Lupus erythematosus systemic	50
172._*	Melanoma	50
172	Melanoma lip  	50
172.1	Melanoma eyelid  	50
172.2	Melanoma ear  	50
172.3	Melanoma face cheek  	50
172.4	Melanoma scalp/neck 	50
172.5	Melanoma trunk  	50
172.6	Melanoma arm  	50
172.7	Melanoma leg  	50
172.8	Melanoma skin (unspecified site)	50
709.09	Melasma	50
706.2	Milia milium	50
374.84	Milia eyelid	50
78	Molluscum contagioisum	50
701	Morphea	50
202.1	Mycosis fungoides	50
703.9	Nail disorder	50
703.8	Nail dystrophy	50
703	Nail ingrown with infection	50
238.2	Neoplasm uncertain behavior of skin	50
239.2	Neoplasm of unspecified nature of bone soft tissue and skin	50
216._*	Neoplasm benign of skin	50
216	Neoplasm benign of lip  	50
216.1	Neoplasm benign of eyelid  	50
216.2	Neoplasm benign of ear  	50
216.3	Neoplasm benign of face cheek  	50
216.4	Neoplasm benign of scalp/neck 	50
216.5	Neoplasm benign of trunk  	50
216.6	Neoplasm benign of arm  	50
216.7	Neoplasm benign of leg  	50
216.8	Neoplasm benign of skin (unspecified site)	50
691.8	Neurodermatitis	50
216._*	Nevus dermal	50
795.51	Nonspecific reaction to tuberculin skin test without active tuberculosis	50
782	Notalgia paresthetica	50
692.9	Nummular eczema	50
681.02	Onychia and paronychia of finger	50
681.11	Onychia and paronychia of toe	50
703.8	Onycholysis	50
110.1	Onychomycosis	50
690.8	Parakeratosis	50
696.2	Parapsoriasis	50
782	Paresthesia	50
681.02	Paronychia (finger)	50
681.11	Paronychia (toe)	50
132	Pediculosis capitis	50
132.1	Pediculosis corporis	50
132.2	Pediculosis pubis	50
704.8	Perifolliculitis scalp NOS	50
694.5	Pemphigoid (bullous)	50
694.4	Pemphigus vulgaris	50
695.3	Perioral dermatitis	50
V10.83	Personal history of malignant neoplasm of skin	50
V10.82	Personal history of melanoma	50
782.7	Petechia	50
692.79	Photodermatitis	50
698.4	Picker's nodule 	50
709	  Pigmentation abnormality	50
704.41	Pilar cyst	50
696.5	Pityriasis alba	50
696.3	Pityriasis rosea	50
696.4	Pityriasis rubra pilaris	50
111	Pityriasis versicolor	50
696.2	PLEVA	50
692.72	Polymorphous light eruption	50
277.1	Porphyria	50
757.32	Port wine stain	50
53.12	Postherpetic neuralgia (trigeminal)	50
998.59	Postoperative infection	50
709.09	Progressive pigmentary dermatosis	50
698.3	Prurigo nodularis	50
698.2	Prurigo NOS	50
698	Pruritus ani	50
698.9	Pruritus NOS	50
696.1	Psoriasis (except arthropathic)	50
696	Psoriatic arthropathy	50
287	Purpura allergic	50
287.2	Purpura Bateman	50
709.1	Purpura primary	50
686.9	Pustule skin infection NOS	50
686.01	Pyoderma gangrenosum	50
686.09	Pyoderma skin	50
686.1	Pyogenic granuloma skin	50
443	Raynaud disease	50
695.3	Rhinophyma	50
701.8	Rhytidosis	50
695.3	Rosacea	50
135	Sarcoidosis	50
133	Scabies	50
701.4	Scar fibrosis hypertrophic keloid	50
709.2	Scar / fibrosis of skin NOS	50
34.1	Scarlatina	50
709.09	Schamberg disease	50
710.1	Scleroderma systemic sclerosis	50
701	Scleroderma circumscribed localized	50
690.1	Seborrheic dermatitis	50
706.9	Sebaceous hyperplasia	50
702.11	Seborrheic keratosis inflamed	50
702.19	Seborrheic keratosis non-inflamed	50
999.5	Serum sickness eruption	50
202.2	Sezary disease	50
53.9	Shingles without complications	50
701.9	Skin tag	50
686.9	Soft tissue infection	50
173._*	Specified malignant neoplasm of the skin	50
173.09	 Specified malignant neoplasm of the lip 	50
173.19	Specified malignant neoplasm of the eyelid including canthus 	50
173.29	Specified malignant neoplasm of the ear and external auditory canal 	50
173.39	Specified malignant neoplasm of the face 	50
173.49	Specified malignant neoplasm of the scalp and neck 	50
173.59	Specified malignant neoplasm of the trunk 	50
173.69	Specified malignant neoplasm of the arm/shoulder 	50
173.79	Specified malignant neoplasm of the leg/hip 	50
173.89	Specified malignant neoplasm of the specified site 	50
173.99	Specified malignant neoplasm of the unspecified site	50
919.4	Spider bite nonvenoumous without infection	50
448.1	Spider veins	50
173._*	Squamous cell cancer skin	50
173.02	Squamous cell cancer lip  	50
173.12	Squamous cell cancer eyelid  	50
173.22	Squamous cell cancer ear and external auditory canal 	50
173.32	Squamous cell cancer face cheek  	50
173.42	Squamous cell cancer scalp/neck 	50
173.52	Squamous cell cancer trunk  	50
173.62	Squamous cell cancer arm/shoulder  	50
173.72	Squamous cell cancer leg/hip  	50
173.82	Squamous cell cancer skin (specified site) 	50
173.92	Squamous cell cancer skin (unspecified site)	50
454.1	Stasis	50
998.59	Stitch abscess	50
701.3	Striae	50
702.8	Stucco keratosis	50
692.71	Sunburn	50
692.72	Sun damaged skin NOS	50
V67.00	Surgical follow-up no complications	50
V58.32	Suture removal	50
705.9	Sweat gland disorder NOS	50
91	Syphilis primary genital	50
91.9	Syphilis secondary NOS	50
709.09	Tattoo	50
448	Telangiectasia hereditary	50
448.1	Telangiectasia spider	50
448.9	Telangiectasia unspecified	50
704.02	Telogen effluvium	50
112	Thrush	50
110.5	Tinea corporis	50
110.3	Tinea cruris	50
110.4	Tinea pedis	50
111	Tinea versicolor	50
529.1	Tongue geographic	50
704.42	Trichilemmal cyst	50
707.06	Ulcer ankle	50
707.12	Ulcer calf	50
707.07	Ulcer heel	50
707.1	Ulcer lower limb	50
707.13	Ulcer other parts of foot	50
173	Unspecified malignant neoplasm of the skin lip 	50
173.1	Unspecified malignant neoplasm of the skin eyelid including canthus 	50
173.2	Unspecified malignant neoplasm of the skin ear and external auditory canal 	50
173.3	Unspecified malignant neoplasm of the skin face 	50
173.4	Unspecified malignant neoplasm of the skin scalp and neck 	50
173.5	Unspecified malignant neoplasm of the skin trunk 	50
173.6	Unspecified malignant neoplasm of the skin arm/shoulder 	50
173.7	Unspecified malignant neoplasm of the skin leg/hip 	50
173.8	Unspecified malignant neoplasm of the skin specified site 	50
173.9	Unspecified malignant neoplasm of the skin unspecified site	50
708	Urticaria allergic	50
708.8	Urticaria chronic	50
708.3	Urticaria dermatographic	50
995.1	Urticaria giant angioedema	50
708.9	Urticaria NOS	50
447.6	Vasculitis	50
287	Vasculitis allergic	50
454.1	Varicose vein lower extremity with inflammation	50
454.9	Varicose vein lower extremity without ulcer or inflammation	50
78.19	Verruca plana	50
78.12	Verruca plantar	50
78.19	Verruca venereal	50
78.1	Verruca vulgaris	50
919.2	Vesicle multiple unspecified	50
709.8	Vesicular eruption	50
709.01	Vitiligo of skin	50
998.59	 Wound abscess	50
272.2	Xanthoma NOS	50
706.8	Xerosis 	50
*_.2	Xerosis ear  	50
_.1	Xerosis eyelid  	50
_.3	Xerosis face cheek 	50
_.0	Xerosis lip 	50
_.8	Xerosis skin (unspecified site)  	50
_.4	Xerosis scalp/neck  	50
_.6	Xerosis arm  	50
_.7	Xerosis leg  	50
_.5	Xerosis trunk	50